{
   "topicName": "Rational Activation Functions",
   "components": [
      {
         "type": "abstract",
         "content": "Latest insights from biology show that intelligence does not only emerge from the connections between the neurons, but that individual neurons shoulder more computational responsibility. Current Neural Network architecture design and search are biased on fixed activation functions. Using more advanced learnable activation functions provide Neural Networks with higher learning capacity.",
         "displayComponent": true
      },
      {
         "type": "abstract",
         "content": "Latest insights from biology show that intelligence does not only emerge from the connections between the neurons, but that individual neurons shoulder more computational responsibility. Current Neural Network architecture design and search are biased on fixed activation functions. Using more advanced learnable activation functions provide Neural Networks with higher learning capacity.",
         "displayComponent": true
      },
      {
         "type": "image/gif",
         "content": "rationals/rational_activation_functions/components/diagrams/scores.svg",
         "dimensions": {
            "width": "",
            "height": ""
         },
         "center": true,
         "displayComponent": true
      },
      {
         "type": "abstract",
         "content": "Latest insights from biology show that intelligence does not only emerge from the connections between the neurons, but that individual neurons shoulder more computational responsibility. Current Neural Network architecture design and search are biased on fixed activation functions. Using more advanced learnable activation functions provide Neural Networks with higher learning capacity.",
         "displayComponent": true
      },
      {
         "type": "paragraph",
         "content": "Latest insights from daaaaa show that intelligence does not only emerge from the connections between the neurons, but that individual neurons shoulder more computational responsibility. Current Neural Network architecture design and search are biased on fixed activation functions. Using more advanced learnable activation functions provide Neural Networks with higher learning capacity.",
         "displayComponent": true
      },
      {
         "type": "custom",
         "content": "rationals/rational_activation_functions/components/custom/Asterix_mean.html",
         "dimensions": {
            "width": "800px",
            "height": "450px"
         },
         "displayComponent": true
      }
   ]
}