{
   "topicName": "Rational Multiple Equations",
   "subtitle": "Neural network activation functions are a crucial component of deep learning, as they fix the topological space on which the optimization algorithm is run. Learning these function remove this prefixed bias, and while many approaches brought learnable functions in supervised learning context, none has brought them to reinforcement learning so far",
   "thumbnailPath": "assets/rationals/banner.gif",
   "displayTopic": true,
   "components": [
      {
         "type": "abstract",
         "content": "Latest insights from biology show that intelligence does not only emerge from the connections between the neurons, but that individual neurons shoulder more computational responsibility. Current Neural Network architecture design and search are biased on fixed activation functions. Using more advanced learnable activation functions provide Neural Networks with higher learning capacity.",
         "displayComponent": true
      },
      {
         "type": "abstract",
         "content": "Latest insights from biology show that intelligence does not only emerge from the connections between the neurons, but that individual neurons shoulder more computational responsibility. Current Neural Network architecture design and search are biased on fixed activation functions. Using more advanced learnable activation functions provide Neural Networks with higher learning capacity.",
         "displayComponent": true
      },
      {
         "type": "image/gif",
         "content": "assets/rationals/banner.gif",
         "dimensions": {
            "width": "",
            "height": ""
         },
         "displayComponent": true
      },
      {
         "type": "abstract",
         "content": "Latest insights from biology show that intelligence does not only emerge from the connections between the neurons, but that individual neurons shoulder more computational responsibility. Current Neural Network architecture design and search are biased on fixed activation functions. Using more advanced learnable activation functions provide Neural Networks with higher learning capacity.",
         "displayComponent": true
      },
      {
         "type": "image/gif",
         "content": "assets/rationals/DQN_rat_SpaceInvaders_s3_e500.gif",
         "dimensions": {
            "width": "",
            "height": ""
         },
         "displayComponent": true
      },
      {
         "type": "paragraph",
         "content": "Latest insights from daaaaa show that intelligence does not only emerge from the connections between the neurons, but that individual neurons shoulder more computational responsibility. Current Neural Network architecture design and search are biased on fixed activation functions. Using more advanced learnable activation functions provide Neural Networks with higher learning capacity.",
         "displayComponent": true
      },
      {
         "type": "image/gif",
         "content": "assets/rationals/diagrams/scores.svg",
         "dimensions": {
            "width": "",
            "height": ""
         },
         "displayComponent": true
      },
      {
         "type": "custom",
         "content": "assets/rationals/vis/Asterix_mean.html",
         "dimensions": {
            "width": "500px",
            "height": "420px"
         },
         "displayComponent": true
      },
      {
         "type": "custom",
         "content": "assets/rationals/vis/BattleZone_mean.html",
         "dimensions": {
            "width": "500px",
            "height": "420px"
         },
         "displayComponent": true
      },
      {
         "type": "custom",
         "content": "assets/rationals/vis/Asterix_mean.html",
         "dimensions": {
            "width": "500px",
            "height": "420px"
         },
         "displayComponent": true
      },
      {
         "type": "custom",
         "content": "assets/rationals/vis/BattleZone_mean.html",
         "dimensions": {
            "width": "500px",
            "height": "420px"
         },
         "displayComponent": true
      },
      {
         "type": "custom",
         "content": "assets/rationals/vis/Asterix_mean.html",
         "dimensions": {
            "width": "500px",
            "height": "420px"
         },
         "displayComponent": true
      },
      {
         "type": "custom",
         "content": "assets/rationals/vis/BattleZone_mean.html",
         "dimensions": {
            "width": "500px",
            "height": "420px"
         },
         "displayComponent": true
      },
      {
         "type": "custom",
         "content": "assets/rationals/vis/Asterix_mean.html",
         "dimensions": {
            "width": "500px",
            "height": "420px"
         },
         "displayComponent": true
      },
      {
         "type": "custom",
         "content": "assets/rationals/vis/BattleZone_mean.html",
         "dimensions": {
            "width": "500px",
            "height": "420px"
         },
         "displayComponent": true
      }
   ]
}